{
    "name": "laravel/laravel",
    "description": "The Laravel Framework.",
    "keywords": ["framework", "laravel"],
    "license": "MIT",
    "type": "project",
    "require": {
        "php": ">=7.3.26",
        "appstract/laravel-response-macros": "^0.2.2",
        "barryvdh/laravel-cors": "^0.11.0",
        "barryvdh/laravel-ide-helper": "^2.5",
        "cboden/ratchet": "^0.4.1",
        "daniel-furmanov/laravel-formatter": "^2.0",
        "dingo/api": "2.1.0",
        "enniosousa/server-error-pages": "^v1.0.6",
        "fideloper/proxy": "~4.0",
        "guzzlehttp/guzzle": "^6.3",
        "intervention/image": "^2.4",
        "laracasts/flash": "^3.0",
        "laravel/framework": "5.8.*",
        "laravel/tinker": "~1.0",
        "nasyrov/laravel-enums": "^1.1",
        "orchestra/parser": "~3.0",
        "pacuna/schemas": "dev-master",
        "predis/predis": "^1.1",
        "react/datagram": "^1.4",
        "seromenho/xml-validator": "dev-master",
        "spatie/array-to-xml": "^2.7",
        "spatie/laravel-json-api-paginate": "^1.4",
        "spatie/laravel-permission": "^2.9",
        "spatie/laravel-query-builder": "^1.17.0",
        "tymon/jwt-auth": "^0.5.12",
        "kylekatarnls/laravel-carbon-2": "^1.0.0",
        "nesbot/carbon": "2.0.0-beta.2 as 1.38.2",
        "vyuldashev/xml-to-array": "^1.0"
    },
    "require-dev": {
        "barryvdh/laravel-debugbar": "^3.1",
        "codedungeon/phpunit-result-printer": "^0.6.0",
        "filp/whoops": "~2.0",
        "mockery/mockery": "~1.0",
        "nunomaduro/collision": "~2.0",
        "phpunit/phpunit": "~7.0",
        "symfony/thanks": "^1.0"
    },
    "autoload": {
        "classmap": [
            "database/seeds",
            "database/factories"
        ],
        "psr-4": {
            "App\\": "app/"
        }
    },
    "autoload-dev": {
        "psr-4": {
            "Tests\\": "tests/"
        },
        "files": ["tests/utilities/functions.php"]
    },
    "extra": {
        "laravel": {
            "dont-discover": [
            ]
        }
    },
    "scripts": {
        "post-root-package-install": [
            "@php -r \"file_exists('.env') || copy('.env.example', '.env');\""
        ],
        "post-create-project-cmd": [
            "@php artisan key:generate"
        ],
        "post-autoload-dump": [
            "Illuminate\\Foundation\\ComposerScripts::postAutoloadDump",
            "@php artisan package:discover"
        ],
        "post-update-cmd": [
            "php artisan clear-compiled",
            "Illuminate\\Foundation\\ComposerScripts::postUpdate",
            "php artisan ide-helper:generate",
            "php artisan ide-helper:meta"
        ]
    },
    "config": {
        "preferred-install": "dist",
        "sort-packages": true,
        "optimize-autoloader": true
    }
}
